Introducing partition
…
---

## reduced data

```r
# also: prt$reduced_data
partition_scores(prt)
```

---

```
## # A tibble: 1,000 x 34
##    block1_x3 block2_x1 block2_x2 block2_x3 block2_x4
##        <dbl>     <dbl>     <dbl>     <dbl>     <dbl>
##  1     0.786   -1.60     -1.42     -1.29     -1.31  
##  2     0.787    0.218    -1.21     -0.142    -0.262 
##  3    -0.160    0.263     1.13      0.612    -0.0914
##  4     1.93     1.48      0.0141   -0.153    -0.304 
##  5    -0.914   -0.243     0.534    -0.661     0.191 
##  6     2.67     0.240     0.322    -0.223    -0.383 
##  7     0.690    1.46     -0.457     0.864     0.410 
##  8     2.51    -1.19      0.0107   -0.773    -2.01  
##  9     0.970   -0.0343   -0.124     0.0621   -2.58  
## 10     0.173    0.268     1.09      1.37      1.44  
## # … with 990 more rows, and 29 more variables:
## #   block3_x1 <dbl>, block3_x2 <dbl>, block3_x3 <dbl>,
## #   block3_x4 <dbl>, block3_x5 <dbl>, block4_x1 <dbl>,
## #   block4_x2 <dbl>, block4_x3 <dbl>, block5_x1 <dbl>,
## #   block5_x2 <dbl>, block5_x3 <dbl>, block5_x4 <dbl>,
## #   block6_x1 <dbl>, block6_x3 <dbl>, block6_x5 <dbl>,
## #   block7_x1 <dbl>, block7_x2 <dbl>, block7_x3 <dbl>,
## #   block8_x1 <dbl>, block8_x2 <dbl>, block8_x3 <dbl>,
## #   block8_x4 <dbl>, block9_x1 <dbl>, block9_x2 <dbl>,
## #   block9_x3 <dbl>, block9_x4 <dbl>, block9_x5 <dbl>,
## #   reduced_var_1 <dbl>, reduced_var_2 <dbl>
```

---

## mapping

```r
mapping_key(prt)
```

```
## # A tibble: 34 x 4
##    variable  mapping   information indices  
##    <chr>     <list>          <dbl> <list>   
##  1 block1_x3 <chr [1]>           1 <int [1]>
##  2 block2_x1 <chr [1]>           1 <int [1]>
##  3 block2_x2 <chr [1]>           1 <int [1]>
##  4 block2_x3 <chr [1]>           1 <int [1]>
##  5 block2_x4 <chr [1]>           1 <int [1]>
##  6 block3_x1 <chr [1]>           1 <int [1]>
##  7 block3_x2 <chr [1]>           1 <int [1]>
##  8 block3_x3 <chr [1]>           1 <int [1]>
##  9 block3_x4 <chr [1]>           1 <int [1]>
## 10 block3_x5 <chr [1]>           1 <int [1]>
## # … with 24 more rows
```

---

## mapping

```r
unnest_mappings(prt)
```

```
## # A tibble: 36 x 4
##    variable  information mapping   indices
##    <chr>           <dbl> <chr>       <int>
##  1 block1_x3           1 block1_x3       3
##  2 block2_x1           1 block2_x1       4
##  3 block2_x2           1 block2_x2       5
##  4 block2_x3           1 block2_x3       6
##  5 block2_x4           1 block2_x4       7
##  6 block3_x1           1 block3_x1       8
##  7 block3_x2           1 block3_x2       9
##  8 block3_x3           1 block3_x3      10
##  9 block3_x4           1 block3_x4      11
## 10 block3_x5           1 block3_x5      12
## # … with 26 more rows
```
…
