…
Let’s simulate some data. x and y are both continuous, and z is binary (0 or 1, with only about 10% of the population with z=1). We’ll simulate 10,000 participants so random error is not a big issue.

z <- sample(0:1, 10000, replace = TRUE, prob = c(.9, .1))
x <- rnorm(10000) + 2*z
y <- 1 + 2*x + 1.5*z + rnorm(10000)

df <- data_frame(y, x, z)

## Warning: `data_frame()` is deprecated, use `tibble()`.
## This warning is displayed once per session.

df

## # A tibble: 10,000 x 3
##          y       x     z
##      <dbl>   <dbl> <int>
##  1 -0.494  -0.463      0
##  2 -0.649   0.0242     0
##  3  2.50   -0.146      0
##  4  1.36    0.0434     1
##  5  3.41    1.00       0
##  6 -2.17   -1.94       0
##  7  0.989   0.209      0
##  8  0.0667 -0.831      0
##  9  1.98    0.0196     0
## 10  1.45    0.0405     0
## # … with 9,990 more rows
…
