ggplotline
…
---

<img src="ggplotline_files/figure-html/unnamed-chunk-21-1.png" style="display: block; margin: auto;" />

---

```r
africa <- gapminder %>% 
  filter(continent == "Africa")

africa
```

```
## # A tibble: 624 x 6
##    country continent  year lifeExp    pop
##    <fct>   <fct>     <int>   <dbl>  <int>
##  1 Algeria Africa     1952    43.1 9.28e6
##  2 Algeria Africa     1957    45.7 1.03e7
##  3 Algeria Africa     1962    48.3 1.10e7
##  4 Algeria Africa     1967    51.4 1.28e7
##  5 Algeria Africa     1972    54.5 1.48e7
##  6 Algeria Africa     1977    58.0 1.72e7
##  7 Algeria Africa     1982    61.4 2.00e7
##  8 Algeria Africa     1987    65.8 2.33e7
##  9 Algeria Africa     1992    67.7 2.63e7
## 10 Algeria Africa     1997    69.2 2.91e7
## # ... with 614 more rows, and 1 more variable:
## #   gdpPercap <dbl>
```
…
## combine plots horizontally: `+`
## combine plots vertically: `/`
## group plots: `()`
## control layout: `plot_layout()`

---

```r
diabetes
```

```
## # A tibble: 403 x 19
##       id  chol stab.glu   hdl ratio glyhb location
##    <int> <int>    <int> <int> <dbl> <dbl> <chr>   
##  1  1000   203       82    56  3.60  4.31 Bucking…
##  2  1001   165       97    24  6.90  4.44 Bucking…
##  3  1002   228       92    37  6.20  4.64 Bucking…
##  4  1003    78       93    12  6.5   4.63 Bucking…
##  5  1005   249       90    28  8.90  7.72 Bucking…
##  6  1008   248       94    69  3.60  4.81 Bucking…
##  7  1011   195       92    41  4.80  4.84 Bucking…
##  8  1015   227       75    44  5.20  3.94 Bucking…
##  9  1016   177       87    49  3.60  4.84 Bucking…
## 10  1022   263       89    40  6.60  5.78 Bucking…
## # ... with 393 more rows, and 12 more variables:
## #   age <int>, sex <chr>, height <int>,
## #   weight <int>, frame <chr>, bp.1s <int>, …
```
…
