Accessing Twitter Data
…
---

# Get mentions

```r
ser_mentions <- get_mentions()
ser_mentions
```

```
## # A tibble: 198 x 20
##    created_at          status_id text  truncated source status_in_reply…
##    <dttm>              <chr>     <chr> <lgl>     <chr>  <chr>           
##  1 2018-10-05 02:09:45 10480324… #Epi… TRUE      "<a h… <NA>            
##  2 2018-10-04 19:00:01 10479243… New … TRUE      "<a h… <NA>            
##  3 2018-10-03 13:18:35 10474760… Who’… FALSE     "<a h… <NA>            
##  4 2018-10-02 09:52:00 10470616… @Maa… TRUE      "<a h… 104599229489215…
##  5 2018-10-01 17:47:34 10468189… @Lau… FALSE     "<a h… 104638157466367…
##  6 2018-09-30 12:49:42 10463815… Real… TRUE      "<a h… <NA>            
##  7 2018-09-29 17:41:37 10460926… @ver… FALSE     "<a h… 104609191108429…
##  8 2018-09-29 17:29:40 10460896… @Pro… FALSE     "<a h… 104577152315443…
##  9 2018-09-29 16:21:56 10460725… @Tfe… FALSE     "<a h… 104578113750567…
## 10 2018-09-29 16:11:37 10460699… @Jai… FALSE     "<a h… 104603578878025…
## # ... with 188 more rows, and 14 more variables:
## #   status_in_reply_to_user_id <chr>, in_reply_to_screen_name <chr>,
## #   geo <lgl>, coordinates <lgl>, place <lgl>, contributors <lgl>,
## #   is_quote_status <lgl>, status_quoted_status_id <chr>,
## #   retweet_count <int>, favorite_count <int>, favorited <lgl>,
## #   retweeted <lgl>, possibly_sensitive <lgl>, lang <chr>
```
…
<img src="rtweet_tutorial_files/figure-html/unnamed-chunk-4-1.png" style="display: block; margin: auto;" />

---

# Most frequent mentioners

```r
library(tidyverse)
mentioners <- lookup_tweets(ser_mentions$status_id)
mentioners
```

```
## # A tibble: 198 x 88
##    user_id status_id created_at          screen_name text  source
##  * <chr>   <chr>     <dttm>              <chr>       <chr> <chr> 
##  1 420928… 10451554… 2018-09-27 03:37:20 Soneidar    That… Twitt…
##  2 666601… 10410768… 2018-09-15 21:30:35 lisabodnar  @PWG… Twitt…
##  3 666601… 10400205… 2018-09-12 23:33:27 lisabodnar  @Epi… Twitt…
##  4 666601… 10266265… 2018-08-07 00:30:17 lisabodnar  @Ger… Twitt…
##  5 666601… 10402445… 2018-09-13 14:23:10 lisabodnar  @Lau… Twitt…
##  6 666601… 10377964… 2018-09-06 20:15:41 lisabodnar  ".@P… Twitt…
##  7 666601… 10373668… 2018-09-05 15:48:27 lisabodnar  @soc… Twitt…
##  8 666601… 10357008… 2018-09-01 01:28:14 lisabodnar  @rob… Twitt…
##  9 666601… 10357262… 2018-09-01 03:09:24 lisabodnar  @Epi… Twitt…
## 10 666601… 10357231… 2018-09-01 02:57:00 lisabodnar  @Epi… Twitt…
## # ... with 188 more rows, and 82 more variables: display_text_width <dbl>,
## #   reply_to_status_id <chr>, reply_to_user_id <chr>,
## #   reply_to_screen_name <chr>, is_quote <lgl>, is_retweet <lgl>,
## #   favorite_count <int>, retweet_count <int>, hashtags <list>,
## #   symbols <list>, …
```
…
---

<img src="rtweet_tutorial_files/figure-html/most_mentions_out-1.png" style="display: block; margin: auto;" />

---

# Get SER tweets

```r
ser_tweets <- get_timeline("societyforepi", n = 1e5)
ser_tweets
```

```
## # A tibble: 3,231 x 88
##    user_id status_id created_at          screen_name text  source
##  * <chr>   <chr>     <dttm>              <chr>       <chr> <chr> 
##  1 587813… 10479837… 2018-10-04 22:56:03 societyfor… New … Twitt…
##  2 587813… 10473323… 2018-10-03 03:47:37 societyfor… It's… Twitt…
##  3 587813… 10468004… 2018-10-01 16:34:11 societyfor… "Rea… Twitt…
##  4 587813… 10466449… 2018-10-01 06:16:15 societyfor… We n… Twitt…
##  5 587813… 10460688… 2018-09-29 16:07:08 societyfor… Out … Twitt…
##  6 587813… 10458036… 2018-09-28 22:33:09 societyfor… Best… Twitt…
##  7 587813… 10457980… 2018-09-28 22:11:03 societyfor… Yes,… Twitt…
##  8 587813… 10457303… 2018-09-28 17:42:10 societyfor… Did … Twitt…
##  9 587813… 10457297… 2018-09-28 17:39:40 societyfor… "SER… Twitt…
## 10 587813… 10457193… 2018-09-28 16:58:26 societyfor… Caus… Twitt…
## # ... with 3,221 more rows, and 82 more variables:
## #   display_text_width <dbl>, reply_to_status_id <chr>,
## #   reply_to_user_id <chr>, reply_to_screen_name <chr>, is_quote <lgl>,
## #   is_retweet <lgl>, favorite_count <int>, retweet_count <int>,
## #   hashtags <list>, symbols <list>, …
```
…
